%YAML 1.1
%TAG !u! tag:unity3d.com,2011:
--- !u!1001 &5784491162365993977
PrefabInstance:
  m_ObjectHideFlags: 0
  serializedVersion: 2
  m_Modification:
    m_TransformParent: {fileID: 0}
    m_Modifications:
    - target: {fileID: 5955021702037618960, guid: a417cd18fe44a284e97627f355717b11,
        type: 3}
      propertyPath: m_Name
      value: triggerexitclosed2 Variant
      objectReference: {fileID: 0}
    - target: {fileID: 5955021702037618963, guid: a417cd18fe44a284e97627f355717b11,
        type: 3}
      propertyPath: m_LocalPosition.x
      value: -7.151606
      objectReference: {fileID: 0}
    - target: {fileID: 5955021702037618963, guid: a417cd18fe44a284e97627f355717b11,
        type: 3}
      propertyPath: m_LocalPosition.y
      value: -1.918
      objectReference: {fileID: 0}
    - target: {fileID: 5955021702037618963, guid: a417cd18fe44a284e97627f355717b11,
        type: 3}
      propertyPath: m_LocalPosition.z
      value: 55.92661
      objectReference: {fileID: 0}
    - target: {fileID: 5955021702037618963, guid: a417cd18fe44a284e97627f355717b11,
        type: 3}
      propertyPath: m_LocalRotation.x
      value: -0
      objectReference: {fileID: 0}
    - target: {fileID: 5955021702037618963, guid: a417cd18fe44a284e97627f355717b11,
        type: 3}
      propertyPath: m_LocalRotation.y
      value: -0
      objectReference: {fileID: 0}
    - target: {fileID: 5955021702037618963, guid: a417cd18fe44a284e97627f355717b11,
        type: 3}
      propertyPath: m_LocalRotation.z
      value: -0
      objectReference: {fileID: 0}
    - target: {fileID: 5955021702037618963, guid: a417cd18fe44a284e97627f355717b11,
        type: 3}
      propertyPath: m_LocalRotation.w
      value: 1
      objectReference: {fileID: 0}
    - target: {fileID: 5955021702037618963, guid: a417cd18fe44a284e97627f355717b11,
        type: 3}
      propertyPath: m_RootOrder
      value: 0
      objectReference: {fileID: 0}
    - target: {fileID: 5955021702037618963, guid: a417cd18fe44a284e97627f355717b11,
        type: 3}
      propertyPath: m_LocalEulerAnglesHint.x
      value: 0
      objectReference: {fileID: 0}
    - target: {fileID: 5955021702037618963, guid: a417cd18fe44a284e97627f355717b11,
        type: 3}
      propertyPath: m_LocalEulerAnglesHint.y
      value: 0
      objectReference: {fileID: 0}
    - target: {fileID: 5955021702037618963, guid: a417cd18fe44a284e97627f355717b11,
        type: 3}
      propertyPath: m_LocalEulerAnglesHint.z
      value: 0
      objectReference: {fileID: 0}
    - target: {fileID: 5955021702037618962, guid: a417cd18fe44a284e97627f355717b11,
        type: 3}
      propertyPath: m_Points.m_Paths.Array.data[0].Array.size
      value: 6
      objectReference: {fileID: 0}
    - target: {fileID: 5955021702037618962, guid: a417cd18fe44a284e97627f355717b11,
        type: 3}
      propertyPath: m_Points.m_Paths.Array.data[0].Array.data[0].x
      value: 0.1723058
      objectReference: {fileID: 0}
    - target: {fileID: 5955021702037618962, guid: a417cd18fe44a284e97627f355717b11,
        type: 3}
      propertyPath: m_Points.m_Paths.Array.data[0].Array.data[0].y
      value: 1.3916767
      objectReference: {fileID: 0}
    - target: {fileID: 5955021702037618962, guid: a417cd18fe44a284e97627f355717b11,
        type: 3}
      propertyPath: m_Points.m_Paths.Array.data[0].Array.data[1].x
      value: -0.60913014
      objectReference: {fileID: 0}
    - target: {fileID: 5955021702037618962, guid: a417cd18fe44a284e97627f355717b11,
        type: 3}
      propertyPath: m_Points.m_Paths.Array.data[0].Array.data[1].y
      value: 1.0332572
      objectReference: {fileID: 0}
    - target: {fileID: 5955021702037618962, guid: a417cd18fe44a284e97627f355717b11,
        type: 3}
      propertyPath: m_Points.m_Paths.Array.data[0].Array.data[2].x
      value: -0.26529408
      objectReference: {fileID: 0}
    - target: {fileID: 5955021702037618962, guid: a417cd18fe44a284e97627f355717b11,
        type: 3}
      propertyPath: m_Points.m_Paths.Array.data[0].Array.data[2].y
      value: 0.040409565
      objectReference: {fileID: 0}
    - target: {fileID: 5955021702037618962, guid: a417cd18fe44a284e97627f355717b11,
        type: 3}
      propertyPath: m_Points.m_Paths.Array.data[0].Array.data[4].x
      value: 0.39960766
      objectReference: {fileID: 0}
    - target: {fileID: 5955021702037618962, guid: a417cd18fe44a284e97627f355717b11,
        type: 3}
      propertyPath: m_Points.m_Paths.Array.data[0].Array.data[4].y
      value: 0.33108556
      objectReference: {fileID: 0}
    - target: {fileID: 5955021702037618962, guid: a417cd18fe44a284e97627f355717b11,
        type: 3}
      propertyPath: m_Points.m_Paths.Array.data[0].Array.data[3].x
      value: -0.168262
      objectReference: {fileID: 0}
    - target: {fileID: 5955021702037618962, guid: a417cd18fe44a284e97627f355717b11,
        type: 3}
      propertyPath: m_Points.m_Paths.Array.data[0].Array.data[3].y
      value: 0.030852914
      objectReference: {fileID: 0}
    - target: {fileID: 5955021702037618962, guid: a417cd18fe44a284e97627f355717b11,
        type: 3}
      propertyPath: m_Points.m_Paths.Array.data[0].Array.data[5].x
      value: 0.3928423
      objectReference: {fileID: 0}
    - target: {fileID: 5955021702037618962, guid: a417cd18fe44a284e97627f355717b11,
        type: 3}
      propertyPath: m_Points.m_Paths.Array.data[0].Array.data[5].y
      value: 0.33119154
      objectReference: {fileID: 0}
    - target: {fileID: 5955021702037618965, guid: a417cd18fe44a284e97627f355717b11,
        type: 3}
      propertyPath: fsm.states.Array.data[1].actionData.fsmOwnerDefaultParams.Array.data[0].gameObject.value
      value: 
      objectReference: {fileID: 0}
    - target: {fileID: 5955021702037618965, guid: a417cd18fe44a284e97627f355717b11,
        type: 3}
      propertyPath: fsm.states.Array.data[2].actionData.fsmOwnerDefaultParams.Array.data[0].gameObject.value
      value: 
      objectReference: {fileID: 0}
    m_RemovedComponents: []
  m_SourcePrefab: {fileID: 100100000, guid: a417cd18fe44a284e97627f355717b11, type: 3}
